%YAML 1.1
%TAG !u! tag:unity3d.com,2011:
--- !u!1001 &100100000
Prefab:
  m_ObjectHideFlags: 1
  serializedVersion: 2
  m_Modification:
    m_TransformParent: {fileID: 0}
    m_Modifications: []
    m_RemovedComponents: []
  m_ParentPrefab: {fileID: 0}
  m_RootGameObject: {fileID: 1834308326694352}
  m_IsPrefabParent: 1
--- !u!1 &1834308326694352
GameObject:
  m_ObjectHideFlags: 0
  m_PrefabParentObject: {fileID: 0}
  m_PrefabInternal: {fileID: 100100000}
  serializedVersion: 5
  m_Component:
  - component: {fileID: 4321922049725476}
  - component: {fileID: 114363283277879124}
  m_Layer: 0
  m_Name: GameManager
  m_TagString: Untagged
  m_Icon: {fileID: 0}
  m_NavMeshLayer: 0
  m_StaticEditorFlags: 0
  m_IsActive: 1
--- !u!4 &4321922049725476
Transform:
  m_ObjectHideFlags: 1
  m_PrefabParentObject: {fileID: 0}
  m_PrefabInternal: {fileID: 100100000}
  m_GameObject: {fileID: 1834308326694352}
  m_LocalRotation: {x: 0, y: 0, z: 0, w: 1}
  m_LocalPosition: {x: 0, y: 9, z: 0}
  m_LocalScale: {x: 1, y: 1, z: 1}
  m_Children: []
  m_Father: {fileID: 0}
  m_RootOrder: 0
  m_LocalEulerAnglesHint: {x: 0, y: 0, z: 0}
--- !u!114 &114363283277879124
MonoBehaviour:
  m_ObjectHideFlags: 1
  m_PrefabParentObject: {fileID: 0}
  m_PrefabInternal: {fileID: 100100000}
  m_GameObject: {fileID: 1834308326694352}
  m_Enabled: 1
  m_EditorHideFlags: 0
  m_Script: {fileID: 11500000, guid: 9a124101328c2bd4691b0f6a5180b560, type: 3}
  m_Name: 
  m_EditorClassIdentifier: 
  m_player1Cups: 0
  m_player2Cups: 0
  m_plunkedCup: {fileID: 0}
  m_ballInCup: 0
  m_ballOnFloor: 0
  m_ballStopped: 0
  m_ballLunched: 0
  m_player1: {fileID: 0}
  m_player2: {fileID: 0}
  m_player1BallStartingPosition: {fileID: 0}
  m_player2BallStartingPosition: {fileID: 0}
  m_Ball: {fileID: 0}
  m_Cue: {fileID: 0}
  m_thresholdBallStop: 2
